var a={"id":76683,"rand":-1,"userType":0,"phone":"17124267535","rids":[],"ridsJson":"[]","sid":0,"status":0,"name":"17124267535","sex":0,"birthdate":0,"age":0,"size":0,"height":0,"weight":0,"ctime":1542931070476,"utime":1557369982995,"startTime":0,"endTime":0,"score":0,"noticeTime":1550287701091,"suggestionTime":0,"token":"6sxxERCvf1bJ4eQL/cFyPbcXZV/ZD0zQbnf0egX1smM="}




http://api.hclyz.com:81/mf/json.txt    //直播api







{"success":true,"data":{"id":753,"name":"佳怡","cover":"http://web.ligui.com/storage/200*300*039e503ab80c0e996ca6f414c1a6078e.jpg","url":"http://web.ligui.com/storage/2000*3000*1b7eeeba1ad8436a3b2cc0f09f5fbf49.jpg,http://web.ligui.com/storage/2000*3000*a9be6cf7e4539846fc852b9b4ac8536a.jpg,http://web.ligui.com/storage/2000*3000*4a510666b725aa097c8e7462651cf102.jpg,http://web.ligui.com/storage/2000*3000*a90dd6620d4b68e359fcba746031aefd.jpg,http://web.ligui.com/storage/3000*2000*adc00b138c0fe8d85f635104b73671ef.jpg,http://web.ligui.com/storage/2000*3000*d807287e1aa4728a07cf43dcb7274183.jpg,http://web.ligui.com/storage/2000*3000*7e68c4e87153c23e06a7e0b0e5524b4e.jpg,http://web.ligui.com/storage/2000*3000*c0ee646d097792331732d35aba79d597.jpg,http://web.ligui.com/storage/3000*2000*818071650e2a56c2dc571a7dd8ab5721.jpg,http://web.ligui.com/storage/2000*3000*86a676c4b5e5396f02af9251257470f9.jpg,http://web.ligui.com/storage/2000*3000*ae76df19c980491feec9e9325d1fc14d.jpg,http://web.ligui.com/storage/2000*3000*47f643909984799b70fdc0b482787f63.jpg,http://web.ligui.com/storage/3000*2000*2141ec80ae03eef8a5db9d298153810c.jpg,http://web.ligui.com/storage/2000*3000*2d75a0c926bf0c9752934648371fa28a.jpg,http://web.ligui.com/storage/2000*3000*906e30b2e1663772d03157831f64ae7f.jpg,http://web.ligui.com/storage/2000*3000*e6726f09cf50de6afcaebc48025c7ef6.jpg,http://web.ligui.com/storage/2000*3000*ab69a007b332f5305570aff431f4257d.jpg,http://web.ligui.com/storage/3000*2000*158eb1b8198fe26618f30a3b40df39b4.jpg,http://web.ligui.com/storage/2000*3000*f73a7c87ed0a706faf970cd799355bfb.jpg,http://web.ligui.com/storage/2000*3000*00f1f7c095bd9a85b405f0adda4d5037.jpg,http://web.ligui.com/storage/2000*3000*a0755dc0f08971f81330cb6ada1cec4e.jpg,http://web.ligui.com/storage/2000*3000*21d475745681643368b82d86570f48c0.jpg,http://web.ligui.com/storage/2000*3000*7f7575d9eeef09f524790fb63304d1d7.jpg,http://web.ligui.com/storage/2000*3000*65eebb07225206efec8c54a9a4a3f7e0.jpg,http://web.ligui.com/storage/3000*2000*3f4144afc7cfb1fab24d3813f473d339.jpg,http://web.ligui.com/storage/3000*2000*c7977380ed7bb38c92e0d10387e1d220.jpg,http://web.ligui.com/storage/3000*2000*f8e493c9f7b07dbe7e3a2ae65df76021.jpg,http://web.ligui.com/storage/3000*2000*f029fd2406fb6c18a1873984a75f1db3.jpg,http://web.ligui.com/storage/2000*3000*3e24b9bfc70d8250a4cf59ab9eadceb2.jpg,http://web.ligui.com/storage/3000*2000*3119fcf38f59ce70586e0889dbe1297b.jpg,http://web.ligui.com/storage/3000*2000*56df6d5713a6d521f032812f664b0727.jpg,http://web.ligui.com/storage/3000*2000*0a4f13deaa60593aebd4aca363295d47.jpg,http://web.ligui.com/storage/3000*2000*f77d1db56fe3aa474fd09695018f2fea.jpg,http://web.ligui.com/storage/3000*2000*77604102df27387d2c2f21887c56721a.jpg,http://web.ligui.com/storage/3000*2000*9a8542ff168b395fa1bff216a2a8d65c.jpg,http://web.ligui.com/storage/3000*2000*8a0b723d3db7ebc393736a240834871a.jpg,http://web.ligui.com/storage/3000*2000*78a394c74bbc0b8110c7f280501d773a.jpg,http://web.ligui.com/storage/3000*2000*44d390a883f22424585785659a7d1a00.jpg,http://web.ligui.com/storage/3000*2000*8b257140f2b4be04e2ad5af9b60c5831.jpg,http://web.ligui.com/storage/3000*2000*32d4948d2a88e84539011e5fccdf57a3.jpg,http://web.ligui.com/storage/2000*3000*edfd413351f4f82a121da5a4f807711a.jpg,http://web.ligui.com/storage/3000*2000*d3b2f9ed92a6616bc1176d249d750bd4.jpg,http://web.ligui.com/storage/3000*2000*514c98ef09942ebaf4e6411625080dd4.jpg,http://web.ligui.com/storage/3000*2000*092850752cd43fefcc72b10dd65b3719.jpg,http://web.ligui.com/storage/2000*3000*d0985a80e182f816dd8a86ac102eaed1.jpg,http://web.ligui.com/storage/3000*2000*7fd63a2d32931f2d989b4e6ceebc7d05.jpg,http://web.ligui.com/storage/3000*2000*66e75036e78e3397f7ee5013bc58ab5c.jpg,http://web.ligui.com/storage/2000*3000*53de1d8d8293026e706465632010e902.jpg,http://web.ligui.com/storage/3000*2000*e31241dfbfc0328706
http://web.ligui.com/web/content/getContentDetailsInfo

id 777
token  6sxxERCvf1bJ4eQL/cFyPeCZHLg1TW08bE6Nm6GMrCU=
version 1.3.0





http://web.ligui.com/web/content/getIndexCommendOrGoodPager





{
    "success": true,
    "data": {
        "id": 777,
        "name": "莲榻风韵",
        "cover": "http://web.ligui.com/storage/200*300*67667a5a807f3a9c81a54b0ca875f55f.jpg",
        "url": "http://web.ligui.com/storage/2000*3000*46cd9aef067492858caf089161613b1b.jpg,http://web.ligui.com/storage/3000*2000*3e0c6dbe883670f349d3845663acc30b.jpg,http://web.ligui.com/storage/2000*3000*52acbd9f19a27576e796bcccc7c99b10.jpg,http://web.ligui.com/storage/3000*2000*9e7704a7a5a433936b66512a90b0c4bd.jpg,http://web.ligui.com/storage/3000*2000*bec0a29c7552ac4b1cb87e3b0c2bc9ba.jpg,http://web.ligui.com/storage/3000*2000*102482984daa68a38c99fd43088e4657.jpg,http://web.ligui.com/storage/3000*2000*217033d8dea3e7c8fb5fcffc17f90b73.jpg,http://web.ligui.com/storage/3000*2000*e5a3ab77f548d28d1f963588a7040bff.jpg,http://web.ligui.com/storage/2000*3000*bf1676799e10997653c0b3decca4fdb3.jpg,http://web.ligui.com/storage/3000*2000*eec72ead64bc1d44dc9dfde51f07c60d.jpg,http://web.ligui.com/storage/3000*2000*e06c38d1ac69bf017a551a1b31c87f28.jpg,http://web.ligui.com/storage/3000*2000*4fe2d9e10a9107b14afc55c13a6a124e.jpg,http://web.ligui.com/storage/3000*2000*190fe48794ebe2ec9f027fc621480664.jpg,http://web.ligui.com/storage/3000*2000*e07ee291d77fc19aa045d33126a4170b.jpg,http://web.ligui.com/storage/3000*2000*139bc1bf1d8ab670f1033d7aac2dfbcb.jpg,http://web.ligui.com/storage/2000*3000*709f02fa00802622ad9d7cef4b6eceb6.jpg,http://web.ligui.com/storage/3000*2000*72f4c388ce40d17654109d99061ac519.jpg,http://web.ligui.com/storage/3000*2000*ee5c626065a10cc6d5761eb9918b6deb.jpg,http://web.ligui.com/storage/2000*3000*90930613985bb79ddb1041014a876927.jpg,http://web.ligui.com/storage/3000*2000*257f50664777029d80990c94d7e131c7.jpg,http://web.ligui.com/storage/3000*2000*e2ba7a1efdbda297f0a8ba2468d50eb2.jpg,http://web.ligui.com/storage/2000*3000*9366c6d60b25c04f96d5121d6eef3f62.jpg,http://web.ligui.com/storage/3000*2000*7c3c621a31e19bf804aed6befa2836c1.jpg,http://web.ligui.com/storage/3000*2000*e568669e31e978a971a41b723a3359d2.jpg,http://web.ligui.com/storage/3000*2000*59c628ef9a18c773e8abe92e1ff1a7a9.jpg,http://web.ligui.com/storage/3000*2000*705bb60588e2b02605c3edc27c9f59c6.jpg,http://web.ligui.com/storage/3000*2000*fb4d25df02a2c89323e892a5065b1e94.jpg,http://web.ligui.com/storage/3000*2000*f84ed6071345d4046999aadbdff85a6c.jpg,http://web.ligui.com/storage/3000*2000*1194f1a79de30be19ff8a2d850d9436d.jpg,http://web.ligui.com/storage/3000*2000*3119ea1f1877daf69fba502f7f7a17ad.jpg,http://web.ligui.com/storage/2000*3000*e5b03e666f8a7f553ec0a38d8847a488.jpg,http://web.ligui.com/storage/3000*2000*7a43d5a81ca2d2ec27666d0bd4316356.jpg,http://web.ligui.com/storage/3000*2000*288b4498423837619c441614084b10d3.jpg,http://web.ligui.com/storage/3000*2000*9152d6413c4fcdd4710c8974e969a40e.jpg,http://web.ligui.com/storage/3000*2000*a82efe9f9ded93f585bc8f4e8103b49a.jpg,http://web.ligui.com/storage/3000*2000*db7d6853cd314c1ebf523132501f1dd7.jpg,http://web.ligui.com/storage/3000*2000*1d1e3154ea8a2c374e483e6ba26e7148.jpg,http://web.ligui.com/storage/2000*3000*cf48c26e613df0d5618ff67531ac3a81.jpg,http://web.ligui.com/storage/3000*2000*415b4b564ceba7d689a35347268e5db2.jpg,http://web.ligui.com/storage/3000*2000*dcace337dc0bf74f5eb4f0b44acfff3a.jpg,http://web.ligui.com/storage/3000*2000*c86c682202b3e1a3053b5d1a5d8168db.jpg,http://web.ligui.com/storage/2000*3000*1c2850ae672d40bc3c92156a92ccdd3a.jpg,http://web.ligui.com/storage/3000*2000*a4cbd47afd000f1be29d7cf82e51bd89.jpg,http://web.ligui.com/storage/3000*2000*3f460cd81e9c1f8fae72eb76742cf63d.jpg,http://web.ligui.com/storage/2000*3000*6b7c9be551dbb3f8f667c52797fe7d0f.jpg,http://web.ligui.com/storage/3000*2000*0f50d8e90fb6749260c6cc069d5e32d5.jpg,http://web.ligui.com/storage/2000*3000*3aead7b877d6c8fa447e53a58fe239ae.jpg,http://web.ligui.com/storage/2000*3000*0b8d188c26b6e3d13ffd73afe3a94d53.jpg,http://web.ligui.com/storage/3000*2000*3f5a88a19cceb45833eabfdce7051ca5.jpg,http://web.ligui.com/storage/3000*2000*ef1f8ca92159a0181c71071a0eb4ef6d.jpg,http://web.ligui.com/storage/3000*2000*c09cbeace53c27549ceae32aa48c5280.jpg,http://web.ligui.com/storage/3000*2000*c37efeac84e1def6aea3399967790153.jpg,http://web.ligui.com/storage/3000*2000*5fe0127692e42c4345b48fcc884abd9b.jpg,http://web.ligui.com/storage/3000*2000*121ea37dc4e7aa21238c7f884c46d2ca.jpg,http://web.ligui.com/storage/2000*3000*dc4854da05ac9968b73d0d3f2a470795.jpg,http://web.ligui.com/storage/3000*2000*96f28044bce99bfd74fbd64d0015b414.jpg,http://web.ligui.com/storage/3000*2000*295b3ce6d3471f22a8b6878f03efc9b8.jpg,http://web.ligui.com/storage/3000*2000*9f749fefe0427514ca042daf3881f0c0.jpg,http://web.ligui.com/storage/3000*2000*af6a87fbc643c86b4abb6153fdc93486.jpg,http://web.ligui.com/storage/3000*2000*041d427e21a452e5040719db852ce4b9.jpg,http://web.ligui.com/storage/3000*2000*eee3512bb1f27d3a5ef8f69c4b2c9fef.jpg,http://web.ligui.com/storage/3000*2000*2e35fe4513910d7b2a8cd203b288af64.jpg,http://web.ligui.com/storage/3000*2000*eb89c003a6f7ce78a64183666f3843d9.jpg,http://web.ligui.com/storage/3000*2000*f6f71cc9b011c0888e6eef2019e47a36.jpg,http://web.ligui.com/storage/3000*2000*7adfd79e577a16374824246e02b228ee.jpg,http://web.ligui.com/storage/3000*2000*e7fb8b2cc7077ed4fd523f70f6566560.jpg,http://web.ligui.com/storage/2000*3000*075db949843a641642e092d0523b95e5.jpg,http://web.ligui.com/storage/2000*3000*3f35f6c1408328a830f57b334e408e80.jpg,http://web.ligui.com/storage/2000*3000*4089d034b535ca850bf2d911732cffac.jpg",
        "length": 69,
        "canWatchNum": 3,
        "isGood": 0,
        "isCommend": 1,
        "type": 0,
        "mid": 144,
        "status": 1,
        "playCount": 2659,
        "lidJson": "3,8",
        "score": 0,
        "onlinetime": 0,
        "sort": 0,
        "ctime": 1557300106446,
        "utime": 1557388632610,
        "modelIcon": "http://web.ligui.com/storage/200*300*5e51d5bb0c441bda628df3f98a21a255.jpg",
        "modelName": "思航",
        "modelRealName": "",
        "modelStatus": 1,
        "collect": 0
    },
    "code": 0
}









新版

推荐：
http://xinweb.liguiclub.com/content/getMostPopularPager  
		参数：size=8&cursor=0&token=UH%2Bo7kIuNaFF%2BUOQFKhQ1dllsJAN4R2h%2FgjV%2BfhTFrs%3D&_version=1.0.0
		
		
{
    "cursor": "0",
    "size": 8,
    "page": 1,
    "data": [
        {
            "id": 953,
            "type": 0,
            "name": "《双生花》之水手的寂寞",
            "cover": "http://store.liguiclub.com/storage/375*450*76a83292542d3b1adf9716545299e2dc.jpg",
            "length": "95",
            "canWatchNum": 3,
            "mid": 94087,
            "pid": 66060,
            "sid": 0,
            "isCommend": 1,
            "url": "http://store.liguiclub.com/storage/2000*3000*5f9b7d717b2c302795ad87464b73e29f.jpg,http://store.liguiclub.com/storage/2000*3000*21c543d12db3abb7cd4840dba9939ed8.jpg,http://store.liguiclub.com/storage/2000*3000*afb7be06204eb284fcd875745d4e0dbf.jpg,",
            "price": 15,
            "info": "",
            "label": "8,3",
            "status": 1,
            "checkStatus": 1,
            "reason": "",
            "topType": 0,
            "endTopTime": 0,
            "startTopTime": 0,
            "payCount": 0,
            "playCount": 263,
            "collectNum": 2,
            "commentNum": 0,
            "shareStatus": 1,
            "downloadTime": 0,
            "score": 0,
            "onlinetime": 0,
            "handleOnlineStatus": 0,
            "backUpCount": 0,
            "sort": 0,
            "pushStatus": 0,
            "vip": 1,
            "ctime": 1571987333740,
            "utime": 1571996994071,
            "modelName": "丽柜 兔子",
            "modelIcon": "http://store.liguiclub.com/storage/683*914*4f48cb1f5b511f7f54ca947e8e397390.jpg",
            "modelFansCount": 885,
            "showWeixin": 1,
            "hasFlowModel": false,
            "authorFansCount": 0,
            "hasFlowAuthor": false,
            "authorType": 0,
            "hasCollect": false,
            "canView": false
        },
        {
            "id": 952,
            "type": 2,
            "name": "《颜丝香茧》- 文芮",
            "cover": "http://store.liguiclub.com/storage/375*240*5c812d4e5ecce97b23627f66b801a2e2.jpg",
            "length": "285",
            "canWatchNum": 0,
            "mid": 164257,
            "pid": 66060,
            "sid": 0,
            "isCommend": 1,
            "url": "http://store.liguiclub.com/storage/video/f4719b0f821f4135b3e795d5481b76a7.mp4",
            "price": 30,
            "info": "",
            "label": "8,3",
            "status": 1,
            "checkStatus": 1,
            "reason": "",
            "topType": 0,
            "endTopTime": 0,
            "startTopTime": 0,
            "payCount": 2,
            "playCount": 730,
            "collectNum": 3,
            "commentNum": 1,
            "shareStatus": 1,
            "downloadTime": 1587657600000,
            "score": 0,
            "onlinetime": 0,
            "handleOnlineStatus": 0,
            "backUpCount": 0,
            "sort": 0,
            "pushStatus": 0,
            "vip": 1,
            "ctime": 1571915187992,
            "utime": 1571996813871,
            "modelName": "丽柜 文芮",
            "modelIcon": "http://store.liguiclub.com/storage/270*270*5ef0f3fa36146743cf9034f45121b77b.jpg",
            "modelFansCount": 64,
            "showWeixin": 1,
            "hasFlowModel": false,
            "authorFansCount": 0,
            "hasFlowAuthor": false,
            "authorType": 0,
            "hasCollect": false,
            "canView": false
        },
        {
            "id": 947,
            "type": 0,
            "name": "《职场新秀》- 爆款美腿",
            "cover": "http://store.liguiclub.com/storage/375*450*c0572f3fae0e96598c1670a8a5275aec.jpg",
            "length": "69",
            "canWatchNum": 3,
            "mid": 165526,
            "pid": 66060,
            "sid": 0,
            "isCommend": 1,
            "url": "http://store.liguiclub.com/storage/2000*3000*e2388303c51cb6aa51314ec48a0e913a.jpg,http://store.liguiclub.com/storage/2000*3000*78319f57e698838878b441dd4f6816c9.jpg,http://store.liguiclub.com/storage/2000*3000*61f7064ac5ca273ff99917c99a7de8e1.jpg,",
            "price": 10,
            "info": "",
            "label": "10,3",
            "status": 1,
            "checkStatus": 1,
            "reason": "",
            "topType": 0,
            "endTopTime": 0,
            "startTopTime": 0,
            "payCount": 4,
            "playCount": 2230,
            "collectNum": 20,
            "commentNum": 1,
            "shareStatus": 1,
            "downloadTime": 0,
            "score": 0,
            "onlinetime": 0,
            "handleOnlineStatus": 0,
            "backUpCount": 0,
            "sort": 0,
            "pushStatus": 0,
            "vip": 0,
            "ctime": 1571640640894,
            "utime": 1571996833121,
            "modelName": "丽柜 RITA",
            "modelFansCount": 72,
            "showWeixin": 0,
            "hasFlowModel": false,
            "authorFansCount": 0,
            "hasFlowAuthor": false,
            "authorType": 0,
            "hasCollect": false,
            "canView": false
        },
        {
            "id": 946,
            "type": 0,
            "name": "潼潼",
            "cover": "http://store.liguiclub.com/storage/375*450*8d46d46777355935f10319bbf797e1d9.jpg",
            "length": "64",
            "canWatchNum": 3,
            "mid": 165507,
            "pid": 66060,
            "sid": 0,
            "isCommend": 1,
            "url": "http://store.liguiclub.com/storage/2000*3000*7a05f2f85f7341ce5dab195c5cfe95b9.jpg,http://store.liguiclub.com/storage/2000*3000*54aef9153ea0f67c4c0bd2abe9b669b5.jpg,http://store.liguiclub.com/storage/2000*3000*fda8d15d7c8af335fd7991f15a0b0a0c.jpg,",
            "price": 10,
            "info": "",
            "label": "5,3",
            "status": 1,
            "checkStatus": 1,
            "reason": "",
            "topType": 0,
            "endTopTime": 0,
            "startTopTime": 0,
            "payCount": 3,
            "playCount": 1280,
            "collectNum": 10,
            "commentNum": 0,
            "shareStatus": 1,
            "downloadTime": 0,
            "score": 0,
            "onlinetime": 0,
            "handleOnlineStatus": 0,
            "backUpCount": 0,
            "sort": 0,
            "pushStatus": 0,
            "vip": 0,
            "ctime": 1571633258047,
            "utime": 1571996557148,
            "modelName": "丽柜 潼潼",
            "modelFansCount": 39,
            "showWeixin": 0,
            "hasFlowModel": false,
            "authorFansCount": 0,
            "hasFlowAuthor": false,
            "authorType": 0,
            "hasCollect": false,
            "canView": false
        },
        {
            "id": 945,
            "type": 2,
            "name": "《紧缚丽莲》之凉儿",
            "cover": "http://store.liguiclub.com/storage/375*240*54701f7a2b188549d5acacb5d4c80f32.jpeg",
            "length": "477",
            "canWatchNum": 0,
            "mid": 91576,
            "pid": 66060,
            "sid": 0,
            "isCommend": 1,
            "url": "http://store.liguiclub.com/storage/video/4231ddfc569e46f4911e8de03b4747ab.mp4",
            "price": 30,
            "info": "",
            "label": "6,4",
            "status": 1,
            "checkStatus": 1,
            "reason": "",
            "topType": 0,
            "endTopTime": 0,
            "startTopTime": 0,
            "payCount": 10,
            "playCount": 1771,
            "collectNum": 23,
            "commentNum": 0,
            "shareStatus": 1,
            "downloadTime": 1587225600000,
            "score": 0,
            "onlinetime": 0,
            "handleOnlineStatus": 0,
            "backUpCount": 0,
            "sort": 0,
            "pushStatus": 0,
            "vip": 1,
            "ctime": 1571477711718,
            "utime": 1571996499590,
            "modelName": "丽柜 凉儿",
            "modelIcon": "http://store.liguiclub.com/storage/270*270*a746f8fe7d658bf44f7c77e5a8dea396.jpg",
            "modelFansCount": 485,
            "showWeixin": 0,
            "hasFlowModel": false,
            "authorFansCount": 0,
            "hasFlowAuthor": false,
            "authorType": 0,
            "hasCollect": false,
            "canView": false
        },
        {
            "id": 939,
            "type": 2,
            "name": "《职场新秀》- 颖儿",
            "cover": "http://store.liguiclub.com/storage/375*240*6e812948934fd7bb5ef5c412d3e05d77.jpg",
            "length": "499",
            "canWatchNum": 0,
            "mid": 164251,
            "pid": 66060,
            "sid": 0,
            "isCommend": 1,
            "url": "http://store.liguiclub.com/storage/video/8945370f7c4d458f84c7670e83fb6335.mp4",
            "price": 30,
            "info": "",
            "label": "10,3",
            "status": 1,
            "checkStatus": 1,
            "reason": "",
            "topType": 0,
            "endTopTime": 0,
            "startTopTime": 0,
            "payCount": 3,
            "playCount": 1794,
            "collectNum": 7,
            "commentNum": 0,
            "shareStatus": 1,
            "downloadTime": 1586880000000,
            "score": 0,
            "onlinetime": 0,
            "handleOnlineStatus": 0,
            "backUpCount": 0,
            "sort": 0,
            "pushStatus": 0,
            "vip": 0,
            "ctime": 1571142621426,
            "utime": 1571996253966,
            "modelName": "丽柜 颖儿",
            "modelIcon": "http://store.liguiclub.com/storage/269*269*f451d43164ecf2b7005b8c9d834d5f6d.jpg",
            "modelFansCount": 82,
            "showWeixin": 0,
            "hasFlowModel": false,
            "authorFansCount": 0,
            "hasFlowAuthor": false,
            "authorType": 0,
            "hasCollect": false,
            "canView": false
        },
        {
            "id": 937,
            "type": 0,
            "name": "《职场新秀》- 颖儿",
            "cover": "http://store.liguiclub.com/storage/375*450*74aa42360939b4a3ff726e91f79eca0e.jpg",
            "length": "45",
            "canWatchNum": 3,
            "mid": 164251,
            "pid": 66060,
            "sid": 0,
            "isCommend": 1,
            "url": "http://store.liguiclub.com/storage/2000*3000*d8a9e7a81afe2164860c0132908b5a97.jpg,http://store.liguiclub.com/storage/1972*3000*0c7c1d7ba4b7271d40e68218674778b7.jpg,http://store.liguiclub.com/storage/2000*3000*639c4086564ddc5fc5e687005061d1e5.jpg,",
            "price": 10,
            "info": "",
            "label": "10,3",
            "status": 1,
            "checkStatus": 1,
            "reason": "",
            "topType": 0,
            "endTopTime": 0,
            "startTopTime": 0,
            "payCount": 1,
            "playCount": 2267,
            "collectNum": 7,
            "commentNum": 2,
            "shareStatus": 1,
            "downloadTime": 0,
            "score": 0,
            "onlinetime": 0,
            "handleOnlineStatus": 0,
            "backUpCount": 0,
            "sort": 0,
            "pushStatus": 0,
            "vip": 0,
            "ctime": 1571036046697,
            "utime": 1571996396212,
            "modelName": "丽柜 颖儿",
            "modelIcon": "http://store.liguiclub.com/storage/269*269*f451d43164ecf2b7005b8c9d834d5f6d.jpg",
            "modelFansCount": 82,
            "showWeixin": 0,
            "hasFlowModel": false,
            "authorFansCount": 0,
            "hasFlowAuthor": false,
            "authorType": 0,
            "hasCollect": false,
            "canView": false
        },
        {
            "id": 936,
            "type": 2,
            "name": "《明月吻香莲》",
            "cover": "http://store.liguiclub.com/storage/375*240*a32f47a2f65e168141ceb696fbbaed37.jpg",
            "length": "373",
            "canWatchNum": 0,
            "mid": 140543,
            "pid": 66060,
            "sid": 0,
            "isCommend": 1,
            "url": "http://store.liguiclub.com/storage/video/8cd0f87d038842b8a5418ae082eca287.mp4",
            "price": 30,
            "info": "",
            "label": "9,3",
            "status": 1,
            "checkStatus": 1,
            "reason": "",
            "topType": 0,
            "endTopTime": 0,
            "startTopTime": 0,
            "payCount": 15,
            "playCount": 2456,
            "collectNum": 14,
            "commentNum": 2,
            "shareStatus": 1,
            "downloadTime": 1586707200000,
            "score": 0,
            "onlinetime": 0,
            "handleOnlineStatus": 0,
            "backUpCount": 0,
            "sort": 0,
            "pushStatus": 0,
            "vip": 0,
            "ctime": 1570953042557,
            "utime": 1571996398511,
            "modelName": "丽柜 甜甜",
            "modelIcon": "http://store.liguiclub.com/storage/1080*1343*6a9a3f9f3fee89113f79930af73a639c.jpeg",
            "modelFansCount": 750,
            "showWeixin": 1,
            "hasFlowModel": false,
            "authorFansCount": 0,
            "hasFlowAuthor": false,
            "authorType": 0,
            "hasCollect": false,
            "canView": false
        }
    ],
    "preCursor": "0",
    "nextCursor": "8",
    "count": 0,
    "totalCount": 936,
    "hasnext": true,
    "totalPage": 117
}


图片  type=0，视频  type=1 ，vr  type=2

http://xinweb.liguiclub.com/content/getContentByTypePager

		参数：size=8&cursor=0&token=UH%2Bo7kIuNaFF%2BUOQFKhQ1dllsJAN4R2h%2FgjV%2BfhTFrs%3D&_version=1.0.0&type=0
			  size=8&cursor=0&token=UH%2Bo7kIuNaFF%2BUOQFKhQ1dllsJAN4R2h%2FgjV%2BfhTFrs%3D&_version=1.0.0&type=2
			  

模特  (推荐)type=0		（新人）type=-1
http://xinweb.liguiclub.com/model/getRecommendModel
		参数：size=8&cursor=0&token=UH%2Bo7kIuNaFF%2BUOQFKhQ1dllsJAN4R2h%2FgjV%2BfhTFrs%3D&_version=1.0.0&type=0
		
动态 
http://xinweb.liguiclub.com/circle/getRecommendCirclePager
		参数：size=8&cursor=0&token=UH%2Bo7kIuNaFF%2BUOQFKhQ1dllsJAN4R2h%2FgjV%2BfhTFrs%3D&_version=1.0.0

摄影  （摄影机构）type=2  （摄影师）type=1
http://xinweb.liguiclub.com/model/getPhotographyPager
		参数：size=8&cursor=0&token=UH%2Bo7kIuNaFF%2BUOQFKhQ1dllsJAN4R2h%2FgjV%2BfhTFrs%3D&_version=1.0.0&type=2
		
获取搜索推荐
http://xinweb.liguiclub.com/label/getLabelList?token=UH%2Bo7kIuNaFF%2BUOQFKhQ1dllsJAN4R2h%2FgjV%2BfhTFrs%3D&_version=1.0.0 

搜索 （图片 type=0） 视频type=1    
http://xinweb.liguiclub.com/model/searchByKey		

		参数：size=8&cursor=0&type=0&key=OL%E8%81%8C%E5%9C%BA&token=UH%2Bo7kIuNaFF%2BUOQFKhQ1dllsJAN4R2h%2FgjV%2BfhTFrs%3D&_version=1.0.0